<?xml version="1.0" encoding="UTF-8" standalone="no"?>
<!-- Created with Inkscape (http://www.inkscape.org/) -->

<svg
   xmlns:dc="http://purl.org/dc/elements/1.1/"
   xmlns:cc="http://creativecommons.org/ns#"
   xmlns:rdf="http://www.w3.org/1999/02/22-rdf-syntax-ns#"
   xmlns:svg="http://www.w3.org/2000/svg"
   xmlns="http://www.w3.org/2000/svg"
   xmlns:sodipodi="http://sodipodi.sourceforge.net/DTD/sodipodi-0.dtd"
   xmlns:inkscape="http://www.inkscape.org/namespaces/inkscape"
   id="svg2985"
   version="1.1"
   inkscape:version="0.48.2 r9819"
   width="5296.3037"
   height="2880.3669"
   xml:space="preserve"
   sodipodi:docname="Example4c.svg"><sodipodi:namedview
     pagecolor="#ffffff"
     bordercolor="#666666"
     borderopacity="1"
     objecttolerance="10"
     gridtolerance="10"
     guidetolerance="10"
     inkscape:pageopacity="0"
     inkscape:pageshadow="2"
     inkscape:window-width="1680"
     inkscape:window-height="988"
     id="namedview2987"
     showgrid="false"
     inkscape:zoom="0.1767767"
     inkscape:cx="2875.8722"
     inkscape:cy="667.22454"
     inkscape:window-x="1672"
     inkscape:window-y="-8"
     inkscape:window-maximized="0"
     inkscape:current-layer="g2993"
     fit-margin-top="0"
     fit-margin-left="0"
     fit-margin-right="0"
     fit-margin-bottom="0"><inkscape:grid
       snapvisiblegridlinesonly="true"
       enabled="true"
       visible="true"
       empspacing="5"
       id="grid3040"
       type="xygrid" /></sodipodi:namedview><metadata
     id="metadata2991"><rdf:RDF><cc:Work
         rdf:about=""><dc:format>image/svg+xml</dc:format><dc:type
           rdf:resource="http://purl.org/dc/dcmitype/StillImage" /><dc:title /></cc:Work></rdf:RDF></metadata><defs
     id="defs2989"><marker
   style="overflow:visible;"
   id="Arrow2Send"
   refX="0.0"
   refY="0.0"
   orient="auto"
   inkscape:stockid="Arrow2Send"><path
     transform="scale(0.3) rotate(180) translate(-2.3,0)"
     d="M 8.7185878,4.0337352 L -2.2072895,0.016013256 L 8.7185884,-4.0017078 C 6.9730900,-1.6296469 6.9831476,1.6157441 8.7185878,4.0337352 z "
     style="font-size:12.0;fill-rule:evenodd;stroke-width:0.62500000;stroke-linejoin:round;"
     id="path5717" /></marker><marker
   style="overflow:visible;"
   id="Arrow1Send"
   refX="0.0"
   refY="0.0"
   orient="auto"
   inkscape:stockid="Arrow1Send"><path
     transform="scale(0.2) rotate(180) translate(6,0)"
     style="fill-rule:evenodd;stroke:#000000;stroke-width:1.0pt;marker-start:none;"
     d="M 0.0,0.0 L 5.0,-5.0 L -12.5,0.0 L 5.0,5.0 L 0.0,0.0 z "
     id="path5699" /></marker><marker
   style="overflow:visible"
   id="Arrow2Mend"
   refX="0"
   refY="0"
   orient="auto"
   inkscape:stockid="Arrow2Mend"><path
     transform="scale(-0.6,-0.6)"
     d="M 8.7185878,4.0337352 -2.2072895,0.01601326 8.7185884,-4.0017078 c -1.7454984,2.3720609 -1.7354408,5.6174519 -6e-7,8.035443 z"
     style="font-size:12px;fill-rule:evenodd;stroke-width:0.625;stroke-linejoin:round"
     id="path4016"
     inkscape:connector-curvature="0" /></marker><marker
   style="overflow:visible"
   id="Arrow2Mend-7"
   refX="0"
   refY="0"
   orient="auto"
   inkscape:stockid="Arrow2Mend"><path
     transform="scale(-0.6,-0.6)"
     d="M 8.7185878,4.0337352 -2.2072895,0.01601326 8.7185884,-4.0017078 c -1.7454984,2.3720609 -1.7354408,5.6174519 -6e-7,8.035443 z"
     style="font-size:12px;fill-rule:evenodd;stroke-width:0.625;stroke-linejoin:round"
     id="path4016-4"
     inkscape:connector-curvature="0" /></marker><marker
   style="overflow:visible"
   id="Arrow2Mend-9"
   refX="0"
   refY="0"
   orient="auto"
   inkscape:stockid="Arrow2Mend"><path
     transform="scale(-0.6,-0.6)"
     d="M 8.7185878,4.0337352 -2.2072895,0.01601326 8.7185884,-4.0017078 c -1.7454984,2.3720609 -1.7354408,5.6174519 -6e-7,8.035443 z"
     style="font-size:12px;fill-rule:evenodd;stroke-width:0.625;stroke-linejoin:round"
     id="path4016-48"
     inkscape:connector-curvature="0" /></marker><marker
   style="overflow:visible"
   id="Arrow2Mend-8"
   refX="0"
   refY="0"
   orient="auto"
   inkscape:stockid="Arrow2Mend"><path
     transform="scale(-0.6,-0.6)"
     d="M 8.7185878,4.0337352 -2.2072895,0.01601326 8.7185884,-4.0017078 c -1.7454984,2.3720609 -1.7354408,5.6174519 -6e-7,8.035443 z"
     style="font-size:12px;fill-rule:evenodd;stroke-width:0.625;stroke-linejoin:round"
     id="path4016-2"
     inkscape:connector-curvature="0" /></marker><marker
   style="overflow:visible"
   id="Arrow2Mend-5"
   refX="0"
   refY="0"
   orient="auto"
   inkscape:stockid="Arrow2Mend"><path
     transform="scale(-0.6,-0.6)"
     d="M 8.7185878,4.0337352 -2.2072895,0.01601326 8.7185884,-4.0017078 c -1.7454984,2.3720609 -1.7354408,5.6174519 -6e-7,8.035443 z"
     style="font-size:12px;fill-rule:evenodd;stroke-width:0.625;stroke-linejoin:round"
     id="path4016-5"
     inkscape:connector-curvature="0" /></marker><marker
   style="overflow:visible"
   id="Arrow2Mend-71"
   refX="0"
   refY="0"
   orient="auto"
   inkscape:stockid="Arrow2Mend"><path
     transform="scale(-0.6,-0.6)"
     d="M 8.7185878,4.0337352 -2.2072895,0.01601326 8.7185884,-4.0017078 c -1.7454984,2.3720609 -1.7354408,5.6174519 -6e-7,8.035443 z"
     style="font-size:12px;fill-rule:evenodd;stroke-width:0.625;stroke-linejoin:round"
     id="path4016-1"
     inkscape:connector-curvature="0" /></marker><marker
   style="overflow:visible"
   id="Arrow2MendY"
   refX="0"
   refY="0"
   orient="auto"
   inkscape:stockid="Arrow2MendY"><path
     transform="scale(-0.6,-0.6)"
     d="M 8.7185878,4.0337352 -2.2072895,0.01601326 8.7185884,-4.0017078 c -1.7454984,2.3720609 -1.7354408,5.6174519 -6e-7,8.035443 z"
     style="font-size:12px;fill:#007800;fill-rule:evenodd;stroke:#007800;stroke-width:0.625;stroke-linejoin:round"
     id="path4566"
     inkscape:connector-curvature="0" /></marker><marker
   style="overflow:visible"
   id="Arrow2Mend2"
   refX="0"
   refY="0"
   orient="auto"
   inkscape:stockid="Arrow2Mend2"><path
     transform="scale(-0.6,-0.6)"
     d="M 8.7185878,4.0337352 -2.2072895,0.01601326 8.7185884,-4.0017078 c -1.7454984,2.3720609 -1.7354408,5.6174519 -6e-7,8.035443 z"
     style="font-size:12px;fill:#007800;fill-rule:evenodd;stroke:#007800;stroke-width:0.625;stroke-linejoin:round"
     id="path4569"
     inkscape:connector-curvature="0" /></marker><marker
   style="overflow:visible"
   id="Arrow2Mend9"
   refX="0"
   refY="0"
   orient="auto"
   inkscape:stockid="Arrow2Mend9"><path
     transform="scale(-0.6,-0.6)"
     d="M 8.7185878,4.0337352 -2.2072895,0.01601326 8.7185884,-4.0017078 c -1.7454984,2.3720609 -1.7354408,5.6174519 -6e-7,8.035443 z"
     style="font-size:12px;fill:#007800;fill-rule:evenodd;stroke:#007800;stroke-width:0.625;stroke-linejoin:round"
     id="path4572"
     inkscape:connector-curvature="0" /></marker><marker
   style="overflow:visible"
   id="Arrow2MendW"
   refX="0"
   refY="0"
   orient="auto"
   inkscape:stockid="Arrow2MendW"><path
     transform="scale(-0.6,-0.6)"
     d="M 8.7185878,4.0337352 -2.2072895,0.01601326 8.7185884,-4.0017078 c -1.7454984,2.3720609 -1.7354408,5.6174519 -6e-7,8.035443 z"
     style="font-size:12px;fill:#007800;fill-rule:evenodd;stroke:#007800;stroke-width:0.625;stroke-linejoin:round"
     id="path4575"
     inkscape:connector-curvature="0" /></marker>















<marker
   style="overflow:visible"
   id="Arrow2Mend-1"
   refX="0"
   refY="0"
   orient="auto"
   inkscape:stockid="Arrow2Mend"><path
     transform="scale(-0.6,-0.6)"
     d="M 8.7185878,4.0337352 -2.2072895,0.01601326 8.7185884,-4.0017078 c -1.7454984,2.3720609 -1.7354408,5.6174519 -6e-7,8.035443 z"
     style="font-size:12px;fill-rule:evenodd;stroke-width:0.625;stroke-linejoin:round"
     id="path4016-7"
     inkscape:connector-curvature="0" /></marker><marker
   style="overflow:visible;"
   id="Arrow2SendV"
   refX="0.0"
   refY="0.0"
   orient="auto"
   inkscape:stockid="Arrow2SendV"><path
     transform="scale(0.3) rotate(180) translate(-2.3,0)"
     d="M 8.7185878,4.0337352 L -2.2072895,0.016013256 L 8.7185884,-4.0017078 C 6.9730900,-1.6296469 6.9831476,1.6157441 8.7185878,4.0337352 z "
     style="stroke-linejoin:round;font-size:12.0;fill-rule:evenodd;stroke:#ff0000;stroke-width:0.62500000;fill:#ff0000"
     id="path6387" /></marker><marker
   style="overflow:visible"
   id="Arrow2Mend-1J"
   refX="0"
   refY="0"
   orient="auto"
   inkscape:stockid="Arrow2Mend-1J"><path
     transform="scale(-0.6,-0.6)"
     d="M 8.7185878,4.0337352 -2.2072895,0.01601326 8.7185884,-4.0017078 c -1.7454984,2.3720609 -1.7354408,5.6174519 -6e-7,8.035443 z"
     style="stroke-linejoin:round;font-size:12px;fill-rule:evenodd;stroke:#0000ff;stroke-width:0.625;fill:#0000ff"
     id="path7370"
     inkscape:connector-curvature="0" /></marker><marker
   style="overflow:visible"
   id="Arrow2Mend-1y"
   refX="0"
   refY="0"
   orient="auto"
   inkscape:stockid="Arrow2Mend-1y"><path
     transform="scale(-0.6,-0.6)"
     d="M 8.7185878,4.0337352 -2.2072895,0.01601326 8.7185884,-4.0017078 c -1.7454984,2.3720609 -1.7354408,5.6174519 -6e-7,8.035443 z"
     style="stroke-linejoin:round;font-size:12px;fill-rule:evenodd;stroke:#0000ff;stroke-width:0.625;fill:#0000ff"
     id="path7373"
     inkscape:connector-curvature="0" /></marker></defs><g
     transform="matrix(1.25,0,0,-1.25,2552.2407,1406.4385)"
     inkscape:label="2"
     inkscape:groupmode="layer"
     id="g2993"><rect
   transform="matrix(0.8,0,0,-0.8,-2041.7926,1125.1508)"
   y="555.3999"
   x="2098.6929"
   height="726.90576"
   width="1906.3599"
   id="rect4228"
   style="fill:#ffffff;fill-opacity:1;fill-rule:nonzero;stroke:#007800;stroke-width:19.5;stroke-linecap:butt;stroke-miterlimit:4;stroke-opacity:1;stroke-dasharray:none;stroke-dashoffset:0" /><g
   id="g3313"><path
     inkscape:connector-curvature="0"
     id="path2997"
     style="fill:none;stroke:#000000;stroke-width:15.60000038;stroke-linecap:round;stroke-linejoin:round;stroke-miterlimit:4;stroke-opacity:1;stroke-dasharray:none"
     d="m -258.197,520.434 55.302,0" /><path
     inkscape:connector-curvature="0"
     id="path2999"
     style="fill:none;stroke:#000000;stroke-width:15.60000038;stroke-linecap:round;stroke-linejoin:round;stroke-miterlimit:4;stroke-opacity:1;stroke-dasharray:none"
     d="m -230.572,492.757 0,55.302" /><path
     inkscape:connector-curvature="0"
     id="path3001"
     style="fill:none;stroke:#000000;stroke-width:15.60000038;stroke-linecap:round;stroke-linejoin:round;stroke-miterlimit:4;stroke-opacity:1;stroke-dasharray:none"
     d="m -258.197,244.028 55.302,0" /><path
     inkscape:connector-curvature="0"
     id="path3003"
     style="fill:none;stroke:#000000;stroke-width:15.60000038;stroke-linecap:butt;stroke-linejoin:round;stroke-miterlimit:4;stroke-opacity:1;stroke-dasharray:none"
     d="m -315.683,105.695 0,553.267 498.511,-276.653 -498.511,-276.614" /><path
     inkscape:connector-curvature="0"
     id="path3005"
     style="fill:none;stroke:#000000;stroke-width:15.60000038;stroke-linecap:butt;stroke-linejoin:miter;stroke-miterlimit:4;stroke-opacity:1;stroke-dasharray:none"
     d="m -313.447,244.028 -138.229,0" /><path
     inkscape:connector-curvature="0"
     id="path3007"
     style="fill:none;stroke:#000000;stroke-width:15.60000038;stroke-linecap:butt;stroke-linejoin:miter;stroke-miterlimit:4;stroke-opacity:1;stroke-dasharray:none"
     d="m -313.447,520.434 -138.229,0" /><path
     inkscape:connector-curvature="0"
     id="path3009"
     style="fill:none;stroke:#000000;stroke-width:15.60000038;stroke-linecap:square;stroke-linejoin:miter;stroke-miterlimit:4;stroke-opacity:1;stroke-dasharray:none"
     d="m 183.998,382.205 138.177,0" /><path
     inkscape:connector-curvature="0"
     id="path3011"
     style="fill:none;stroke:#000000;stroke-width:15.60000038;stroke-linecap:butt;stroke-linejoin:round;stroke-miterlimit:4;stroke-opacity:1;stroke-dasharray:none"
     d="m 651.647,105.695 0,553.267 498.524,-276.653 -498.524,-276.614" /><path
     inkscape:connector-curvature="0"
     id="path3013"
     style="fill:none;stroke:#000000;stroke-width:15.60000038;stroke-linecap:butt;stroke-linejoin:miter;stroke-miterlimit:4;stroke-opacity:1;stroke-dasharray:none"
     d="m 653.831,382.205 -138.177,0" /><path
     inkscape:connector-curvature="0"
     id="path3015"
     style="fill:none;stroke:#000000;stroke-width:15.60000038;stroke-linecap:square;stroke-linejoin:miter;stroke-miterlimit:4;stroke-opacity:1;stroke-dasharray:none"
     d="m 1151.328,382.205 138.177,0" /><path
     inkscape:connector-curvature="0"
     id="path3017"
     style="fill:none;stroke:#000000;stroke-width:15.60000038;stroke-linecap:round;stroke-linejoin:round;stroke-miterlimit:4;stroke-opacity:1;stroke-dasharray:none"
     d="m 819.685,382.205 55.25,0" /><path
     inkscape:connector-curvature="0"
     id="path3019"
     style="fill:none;stroke:#000000;stroke-width:15.60000038;stroke-linecap:butt;stroke-linejoin:round;stroke-miterlimit:4;stroke-opacity:1;stroke-dasharray:none"
     d="m -645.103,520.434 -55.302,0 -27.625,55.25 -55.302,-110.552 -55.25,110.552 -55.302,-110.552 -55.25,110.552 -55.302,-110.552 -27.625,55.302 -55.25,0" /><path
     inkscape:connector-curvature="0"
     id="path3021"
     style="fill:none;stroke:#000000;stroke-width:15.60000038;stroke-linecap:butt;stroke-linejoin:round;stroke-miterlimit:4;stroke-opacity:1;stroke-dasharray:none"
     d="m 488.029,990.254 -55.302,0 -27.625,55.25 -55.25,-110.539 -55.302,110.539 -55.25,-110.539 -55.302,110.539 -55.25,-110.539 -27.677,55.289 -55.25,0" /><path
     inkscape:connector-curvature="0"
     id="path3023"
     style="fill:none;stroke:#000000;stroke-width:15.60000038;stroke-linecap:round;stroke-linejoin:round;stroke-miterlimit:4;stroke-opacity:1;stroke-dasharray:none"
     d="m -1197.902,326.955 c 0,-76.323 -61.854,-138.177 -138.177,-138.177 -76.323,0 -138.177,61.854 -138.177,138.177 0,76.323 61.854,138.177 138.177,138.177 76.323,0 138.177,-61.854 138.177,-138.177 z" /><path
     inkscape:connector-curvature="0"
     id="path3025"
     style="fill:none;stroke:#000000;stroke-width:15.60000038;stroke-linecap:butt;stroke-linejoin:miter;stroke-miterlimit:4;stroke-opacity:1;stroke-dasharray:none"
     d="m -1419.006,271.653 165.854,0" /><path
     inkscape:connector-curvature="0"
     id="path3027"
     style="fill:none;stroke:#000000;stroke-width:15.60000038;stroke-linecap:butt;stroke-linejoin:miter;stroke-miterlimit:4;stroke-opacity:1;stroke-dasharray:none"
     d="m -1391.329,271.653 0,110.552" /><path
     inkscape:connector-curvature="0"
     id="path3029"
     style="fill:#000000;fill-opacity:1;fill-rule:evenodd;stroke:none"
     d="m -1410.218,352.188 18.785,51.142 18.837,-51.142 c -11.115,8.177 -26.299,8.125 -37.622,0 z" /><path
     inkscape:connector-curvature="0"
     id="path3031"
     style="fill:none;stroke:#000000;stroke-width:15.60000038;stroke-linecap:butt;stroke-linejoin:miter;stroke-miterlimit:4;stroke-opacity:1;stroke-dasharray:none"
     d="m -1336.079,271.653 0,110.552" /><path
     inkscape:connector-curvature="0"
     id="path3033"
     style="fill:#000000;fill-opacity:1;fill-rule:evenodd;stroke:none"
     d="m -1354.968,352.188 18.837,51.142 18.785,-51.142 c -11.115,8.177 -26.299,8.125 -37.622,0 z" /><path
     inkscape:connector-curvature="0"
     id="path3035"
     style="fill:none;stroke:#000000;stroke-width:15.60000038;stroke-linecap:butt;stroke-linejoin:miter;stroke-miterlimit:4;stroke-opacity:1;stroke-dasharray:none"
     d="m -1280.777,271.653 0,110.552" /><path
     inkscape:connector-curvature="0"
     id="path3037"
     style="fill:#000000;fill-opacity:1;fill-rule:evenodd;stroke:none"
     d="m -1299.679,352.188 18.798,51.142 18.837,-51.142 c -11.128,8.177 -26.299,8.125 -37.635,0 z" /><g
     id="g4275"><path
       d="m -1419.006,100.014 165.854,0"
       style="fill:none;stroke:#000000;stroke-width:15.60000038;stroke-linecap:round;stroke-linejoin:miter;stroke-miterlimit:4;stroke-opacity:1;stroke-dasharray:none"
       id="path3039"
       inkscape:connector-curvature="0" /><path
       d="m -1391.329,72.337 110.552,0"
       style="fill:none;stroke:#000000;stroke-width:15.60000038;stroke-linecap:round;stroke-linejoin:miter;stroke-miterlimit:4;stroke-opacity:1;stroke-dasharray:none"
       id="path3041"
       inkscape:connector-curvature="0" /><path
       d="m -1363.704,44.712 55.25,0"
       style="fill:none;stroke:#000000;stroke-width:15.60000038;stroke-linecap:round;stroke-linejoin:miter;stroke-miterlimit:4;stroke-opacity:1;stroke-dasharray:none"
       id="path3043"
       inkscape:connector-curvature="0" /><path
       d="m -1336.079,105.851 0,82.927"
       style="fill:none;stroke:#000000;stroke-width:15.60000038;stroke-linecap:butt;stroke-linejoin:miter;stroke-miterlimit:4;stroke-opacity:1;stroke-dasharray:none"
       id="path3045"
       inkscape:connector-curvature="0" /></g><path
     inkscape:connector-curvature="0"
     id="path3047"
     style="fill:none;stroke:#000000;stroke-width:15.60000038;stroke-linecap:round;stroke-linejoin:miter;stroke-miterlimit:4;stroke-opacity:1;stroke-dasharray:none"
     d="m -589.853,100.014 165.854,0" /><path
     inkscape:connector-curvature="0"
     id="path3049"
     style="fill:none;stroke:#000000;stroke-width:15.60000038;stroke-linecap:round;stroke-linejoin:miter;stroke-miterlimit:4;stroke-opacity:1;stroke-dasharray:none"
     d="m -562.228,72.337 110.552,0" /><path
     inkscape:connector-curvature="0"
     id="path3051"
     style="fill:none;stroke:#000000;stroke-width:15.60000038;stroke-linecap:round;stroke-linejoin:miter;stroke-miterlimit:4;stroke-opacity:1;stroke-dasharray:none"
     d="m -534.551,44.712 55.25,0" /><path
     inkscape:connector-curvature="0"
     id="path3053"
     style="fill:none;stroke:#000000;stroke-width:15.60000038;stroke-linecap:butt;stroke-linejoin:miter;stroke-miterlimit:4;stroke-opacity:1;stroke-dasharray:none"
     d="m -506.926,105.851 0,82.927" /><path
     inkscape:connector-curvature="0"
     id="path3055"
     style="fill:none;stroke:#000000;stroke-width:15.60000038;stroke-linecap:butt;stroke-linejoin:miter;stroke-miterlimit:4;stroke-opacity:1;stroke-dasharray:none"
     d="m -1336.079,465.132 0,55.302 248.768,0" /><path
     inkscape:connector-curvature="0"
     id="path3057"
     style="fill:none;stroke:#000000;stroke-width:15.60000038;stroke-linecap:butt;stroke-linejoin:miter;stroke-miterlimit:4;stroke-opacity:1;stroke-dasharray:none"
     d="m -645.103,520.434 193.427,0" /><path
     inkscape:connector-curvature="0"
     id="path3059"
     style="fill:none;stroke:#000000;stroke-width:15.60000038;stroke-linecap:butt;stroke-linejoin:miter;stroke-miterlimit:4;stroke-opacity:1;stroke-dasharray:none"
     d="m -506.926,188.778 0,55.25 55.25,0" /><path
     inkscape:connector-curvature="0"
     id="path3061"
     style="fill:none;stroke:#000000;stroke-width:15.60000038;stroke-linecap:butt;stroke-linejoin:miter;stroke-miterlimit:4;stroke-opacity:1;stroke-dasharray:none"
     d="m -506.926,520.434 0,469.82 552.747,0" /><path
     inkscape:connector-curvature="0"
     id="path3063"
     style="fill:none;stroke:#000000;stroke-width:15.60000038;stroke-linecap:butt;stroke-linejoin:miter;stroke-miterlimit:4;stroke-opacity:1;stroke-dasharray:none"
     d="m 1289.505,105.396 0,114.764" /><path
     inkscape:connector-curvature="0"
     id="path3065"
     style="fill:none;stroke:#000000;stroke-width:15.60000038;stroke-linecap:butt;stroke-linejoin:miter;stroke-miterlimit:4;stroke-opacity:1;stroke-dasharray:none"
     d="m 1289.505,271.653 0,110.552" /><path
     inkscape:connector-curvature="0"
     id="path3067"
     style="fill:none;stroke:#000000;stroke-width:15.60000038;stroke-linecap:round;stroke-linejoin:miter;stroke-miterlimit:4;stroke-opacity:1;stroke-dasharray:none"
     d="m 1372.432,216.403 -165.854,0" /><path
     inkscape:connector-curvature="0"
     id="path3069"
     style="fill:none;stroke:#000000;stroke-width:15.60000038;stroke-linecap:round;stroke-linejoin:miter;stroke-miterlimit:4;stroke-opacity:1;stroke-dasharray:none"
     d="m 1372.432,271.653 -165.854,0" /><path
     inkscape:connector-curvature="0"
     id="path3071"
     style="fill:none;stroke:#000000;stroke-width:15.60000038;stroke-linecap:butt;stroke-linejoin:miter;stroke-miterlimit:4;stroke-opacity:1;stroke-dasharray:none"
     d="m 1289.505,382.205 0,-55.25" /><path
     inkscape:connector-curvature="0"
     id="path3073"
     style="fill:none;stroke:#000000;stroke-width:15.60000038;stroke-linecap:round;stroke-linejoin:miter;stroke-miterlimit:4;stroke-opacity:1;stroke-dasharray:none"
     d="m 1206.578,100.014 165.854,0" /><path
     inkscape:connector-curvature="0"
     id="path3075"
     style="fill:none;stroke:#000000;stroke-width:15.60000038;stroke-linecap:round;stroke-linejoin:miter;stroke-miterlimit:4;stroke-opacity:1;stroke-dasharray:none"
     d="m 1234.255,72.337 110.552,0" /><path
     inkscape:connector-curvature="0"
     id="path3077"
     style="fill:none;stroke:#000000;stroke-width:15.60000038;stroke-linecap:round;stroke-linejoin:miter;stroke-miterlimit:4;stroke-opacity:1;stroke-dasharray:none"
     d="m 1261.88,44.712 55.25,0" /><path
     inkscape:connector-curvature="0"
     id="path3079"
     style="fill:none;stroke:#000000;stroke-width:15.60000038;stroke-linecap:butt;stroke-linejoin:miter;stroke-miterlimit:4;stroke-opacity:1;stroke-dasharray:none"
     d="m 1289.505,105.851 0,82.927" /><path
     inkscape:connector-curvature="0"
     id="path3081"
     style="fill:none;stroke:#000000;stroke-width:15.60000038;stroke-linecap:butt;stroke-linejoin:miter;stroke-miterlimit:4;stroke-opacity:1;stroke-dasharray:none"
     d="m 1234.255,382.205 55.25,0 0,608.049 -829.101,0" /><path
     inkscape:connector-curvature="0"
     id="path3121"
     style="fill:none;stroke:#000000;stroke-width:15.60000038;stroke-linecap:butt;stroke-linejoin:miter;stroke-miterlimit:4;stroke-opacity:1;stroke-dasharray:none"
     d="m 322.175,382.205 221.104,0" /><path
     inkscape:connector-curvature="0"
     id="path3123"
     style="fill:#000000;fill-opacity:1;fill-rule:nonzero;stroke:none"
     d="m -269.468,774.545 -21.333,5.174 c -10.153,2.496 -16.601,11.323 -16.601,20.969 0,11.635 8.983,21.788 21.775,21.788 27.781,0 31.434,-27.261 32.448,-34.788 0.156,-0.962 0.156,-1.976 1.989,-1.976 1.976,0 1.976,1.014 1.976,4.16 l 0,33.267 c 0,2.847 0,4.017 -1.833,4.017 -0.962,0 -1.157,-0.208 -2.275,-2.184 l -5.85,-9.503 c -4.966,4.823 -11.83,11.687 -26.598,11.687 -18.343,0 -32.305,-14.677 -32.305,-32.305 0,-13.663 8.84,-25.792 21.788,-30.264 1.677,-0.663 10.153,-2.691 21.788,-5.486 4.511,-1.17 9.49,-2.34 14.17,-8.528 3.497,-4.316 5.122,-9.646 5.122,-15.132 0,-11.778 -8.281,-23.764 -22.295,-23.764 -4.823,0 -17.459,0.806 -26.091,8.983 -9.659,8.996 -10.166,19.604 -10.309,25.441 -0.208,1.677 -1.534,1.677 -2.041,1.677 -2.132,0 -2.132,-1.17 -2.132,-4.017 l 0,-33.254 c 0,-2.847 0,-4.017 1.833,-4.017 1.17,0 1.313,0.364 2.483,2.184 0,0.156 0.507,0.663 5.993,9.451 5.187,-5.642 15.639,-11.635 30.472,-11.635 19.448,0 32.604,16.302 32.604,34.632 0,16.458 -10.816,30.121 -24.778,33.423 z" /><path
     inkscape:connector-curvature="0"
     id="path3125"
     style="fill:#000000;fill-opacity:1;fill-rule:nonzero;stroke:none"
     d="m -206.613,776.573 23.816,0 0,5.122 -23.816,0 0,30.472 -4.16,0 c -0.156,-13.663 -5.122,-31.278 -21.281,-31.941 l 0,-3.653 13.975,0 0,-45.76 c 0,-20.514 15.483,-22.49 21.476,-22.49 11.83,0 16.302,11.83 16.302,22.49 l 0,9.451 -4.017,0 0,-9.139 c 0,-12.285 -4.979,-18.642 -11.115,-18.642 -11.18,0 -11.18,15.132 -11.18,17.979 l 0,46.111 z" /><path
     inkscape:connector-curvature="0"
     id="path3127"
     style="fill:#000000;fill-opacity:1;fill-rule:nonzero;stroke:none"
     d="m -115.561,722.792 0.156,-0.663 0,-0.507 0.156,-0.65 0.195,-0.663 0.156,-0.663 0.156,-0.507 0.156,-0.663 0.195,-0.663 0.312,-0.507 0.351,-0.65 0.156,-0.52 0.351,-0.507 0.299,-0.65 0.364,-0.507 0.507,-0.468 0.299,-0.507 0.507,-0.507 0.312,-0.351 0.507,-0.455 0.507,-0.364 0.507,-0.507 0.507,-0.299 0.507,-0.351 0.663,-0.364 0.507,-0.143 0.663,-0.312 0.455,-0.208 0.715,-0.143 0.65,-0.156 0.663,0 0.819,-0.156 0.65,0 c 3.51,0 13.663,2.288 13.663,15.795 l 0,9.295 -4.16,0 0,-9.295 c 0,-9.646 -4.16,-10.66 -5.993,-10.66 -5.486,0 -6.149,7.514 -6.149,8.32 l 0,33.111 c 0,7.007 0,13.468 -5.993,19.656 -6.5,6.448 -14.625,9.139 -22.646,9.139 -13.611,0 -25.129,-7.813 -25.129,-18.785 0,-5.031 3.341,-7.826 7.657,-7.826 4.68,0 7.67,3.302 7.67,7.618 0,2.041 -0.806,7.514 -8.476,7.67 4.472,5.837 12.649,7.67 17.979,7.67 7.969,0 17.472,-6.5 17.472,-21.333 l 0,-26.091 c 0,-15.795 -11.843,-21.489 -19.305,-21.489 -8.177,0 -14.976,5.837 -14.976,14.17 0,9.139 6.955,22.802 34.281,23.764 l 0,3.51 c -8.333,-0.507 -19.968,-1.014 -30.472,-5.993 -12.493,-5.486 -16.653,-14.118 -16.653,-21.489 0,-13.455 16.146,-17.615 26.65,-17.615 10.816,0 18.434,6.656 21.632,14.469 z" /><path
     inkscape:connector-curvature="0"
     id="path3129"
     style="fill:#000000;fill-opacity:1;fill-rule:nonzero;stroke:none"
     d="m -70.308,732.295 0,1.17 0.156,0.143 0,0.871 0.195,0.143 0,0.507 0.156,0.312 0,0.351 0.156,0.156 0,0.351 0.143,0.312 0.208,0.351 0,0.299 0.156,0.208 0.143,0.312 0.156,0.351 0.208,0.299 0.143,0.364 0.364,0.299 0.156,0.351 0.143,0.312 0.364,0.351 c 6.5,-4.667 13.299,-5.174 16.445,-5.174 l 0,3.861 c -14.469,0 -14.469,16.445 -14.469,20.306 0,4.472 0.156,9.802 2.639,13.962 1.378,1.989 5.174,6.656 11.83,6.656 14.326,0 14.326,-16.653 14.326,-20.462 0,-4.524 -0.156,-9.802 -2.691,-13.962 -1.326,-2.041 -5.135,-6.5 -11.635,-6.5 l 0,-3.861 c 15.34,0 26.819,11.323 26.819,24.167 0,6.149 -2.691,12.285 -6.864,16.094 5.993,5.694 11.986,6.5 14.989,6.5 0.351,0 1.17,0 1.677,-0.143 -1.833,-0.663 -2.652,-2.496 -2.652,-4.524 0,-2.795 2.145,-4.823 4.836,-4.823 1.625,0 4.823,1.17 4.823,5.031 0,2.795 -2.041,8.125 -8.489,8.125 -3.341,0 -10.66,-0.975 -17.667,-7.826 -6.955,5.486 -13.819,5.993 -17.472,5.993 -15.483,0 -26.962,-11.479 -26.962,-24.271 0,-7.319 3.653,-13.507 7.826,-17.16 -2.145,-2.34 -5.135,-7.826 -5.135,-13.611 0,-5.187 2.132,-11.479 7.319,-14.833 -10.01,-2.847 -15.34,-9.997 -15.34,-16.458 0,-11.973 16.497,-21.164 36.816,-21.164 l 0.156,3.848 c -16.809,0 -28.288,8.489 -28.288,17.316 0,7.475 6.292,13.611 13.663,14.118 l 9.789,0 c 14.118,0 32.76,0 32.76,-14.118 0,-8.983 -11.778,-17.316 -27.924,-17.316 l -0.156,-3.848 c 19.448,0 36.764,8.528 36.764,21.32 0,5.837 -2.34,14.326 -10.816,18.941 -8.84,4.68 -18.486,4.68 -28.483,4.68 -4.121,0 -11.284,0 -12.441,0.143 -5.343,0.715 -8.84,5.85 -8.84,11.18 z" /><path
     inkscape:connector-curvature="0"
     id="path3131"
     style="fill:#000000;fill-opacity:1;fill-rule:nonzero;stroke:none"
     d="m 13.373,748.441 0.208,3.497 c 0.962,24.791 14.924,28.951 20.618,28.951 16.965,0 18.629,-22.503 18.629,-28.951 l -39.247,0 -0.208,-3.497 46.267,0 c 3.653,0 4.16,0 4.16,3.497 0,16.458 -8.983,32.604 -29.601,32.604 -19.292,0 -34.632,-17.16 -34.632,-37.934 0,-22.139 17.472,-38.285 36.608,-38.285 20.163,0 27.625,18.486 27.625,21.632 0,1.677 -1.313,1.976 -2.132,1.976 -1.521,0 -1.872,-0.962 -2.184,-2.275 -5.837,-17.173 -20.813,-17.173 -22.295,-17.173 -8.32,0 -14.976,4.979 -18.785,11.18 -5.031,7.969 -5.031,18.941 -5.031,24.778 z" /><path
     inkscape:connector-curvature="0"
     id="path3133"
     style="fill:#000000;fill-opacity:1;fill-rule:nonzero;stroke:none"
     d="m 172.623,816.34 0,2.483 -0.143,0.156 0,0.65 -0.156,0 0,0.208 -0.208,0.156 -0.143,0.143 -0.156,0 0,0.156 -0.364,0 0,0.208 -0.806,0 -0.156,0.156 -1.677,0 c -10.309,-10.673 -24.778,-10.673 -30.108,-10.673 l 0,-5.122 c 3.302,0 13.156,0 21.632,4.316 l 0,-85.878 c 0,-5.993 -0.507,-7.969 -15.34,-7.969 l -5.33,0 0,-5.174 c 5.837,0.507 20.163,0.507 26.819,0.507 6.643,0 21.125,0 26.962,-0.507 l 0,5.174 -5.33,0 c -14.989,0 -15.496,1.833 -15.496,7.969 l 0,93.041 z" /><path
     inkscape:connector-curvature="0"
     id="path3135"
     style="fill:#000000;fill-opacity:1;fill-rule:nonzero;stroke:none"
     d="m 688.619,774.545 -21.125,5.174 c -10.309,2.496 -16.809,11.323 -16.809,20.969 0,11.635 8.983,21.788 21.931,21.788 27.625,0 31.33,-27.261 32.305,-34.788 0.143,-0.962 0.143,-1.976 2.028,-1.976 2.132,0 2.132,1.014 2.132,4.16 l 0,33.267 c 0,2.847 0,4.017 -1.833,4.017 -1.17,0 -1.313,-0.208 -2.483,-2.184 l -5.837,-9.503 c -4.979,4.823 -11.791,11.687 -26.455,11.687 -18.486,0 -32.461,-14.677 -32.461,-32.305 0,-13.663 8.84,-25.792 21.84,-30.264 1.833,-0.663 10.309,-2.691 21.788,-5.486 4.472,-1.17 9.49,-2.34 14.118,-8.528 3.497,-4.316 5.174,-9.646 5.174,-15.132 0,-11.778 -8.32,-23.764 -22.295,-23.764 -4.667,0 -17.316,0.806 -26.143,8.983 -9.646,8.996 -10.166,19.604 -10.309,25.441 -0.156,1.677 -1.482,1.677 -1.989,1.677 -2.184,0 -2.184,-1.17 -2.184,-4.017 l 0,-33.254 c 0,-2.847 0,-4.017 1.833,-4.017 1.17,0 1.378,0.364 2.483,2.184 0,0.156 0.52,0.663 5.993,9.451 5.187,-5.642 15.847,-11.635 30.472,-11.635 19.448,0 32.812,16.302 32.812,34.632 0,16.458 -11.024,30.121 -24.986,33.423 z" /><path
     inkscape:connector-curvature="0"
     id="path3137"
     style="fill:#000000;fill-opacity:1;fill-rule:nonzero;stroke:none"
     d="m 751.539,776.573 23.764,0 0,5.122 -23.764,0 0,30.472 -4.173,0 c -0.143,-13.663 -5.018,-31.278 -21.32,-31.941 l 0,-3.653 14.157,0 0,-45.76 c 0,-20.514 15.288,-22.49 21.281,-22.49 11.83,0 16.51,11.83 16.51,22.49 l 0,9.451 -4.173,0 0,-9.139 c 0,-12.285 -5.018,-18.642 -11.167,-18.642 -11.115,0 -11.115,15.132 -11.115,17.979 l 0,46.111 z" /><path
     inkscape:connector-curvature="0"
     id="path3139"
     style="fill:#000000;fill-opacity:1;fill-rule:nonzero;stroke:none"
     d="m 842.539,722.792 0.143,-0.663 0.208,-0.507 0,-0.65 0.299,-1.326 0.156,-0.507 0.208,-0.663 0.299,-0.663 0.208,-0.507 0.299,-0.65 0.364,-0.52 0.299,-0.507 0.351,-0.65 0.312,-0.507 0.351,-0.468 0.312,-0.507 0.858,-0.858 0.507,-0.455 0.507,-0.364 0.455,-0.507 0.507,-0.299 0.663,-0.351 0.507,-0.364 0.507,-0.143 0.663,-0.312 0.663,-0.208 1.313,-0.299 0.663,0 0.715,-0.156 0.663,0 c 3.497,0 13.598,2.288 13.598,15.795 l 0,9.295 -4.16,0 0,-9.295 c 0,-9.646 -4.108,-10.66 -5.941,-10.66 -5.538,0 -6.188,7.514 -6.188,8.32 l 0,33.111 c 0,7.007 0,13.468 -5.993,19.656 -6.305,6.448 -14.625,9.139 -22.607,9.139 -13.65,0 -24.986,-7.813 -24.986,-18.785 0,-5.031 3.159,-7.826 7.527,-7.826 4.615,0 7.618,3.302 7.618,7.618 0,2.041 -0.819,7.514 -8.489,7.67 4.524,5.837 12.649,7.67 17.979,7.67 8.177,0 17.615,-6.5 17.615,-21.333 l 0,-26.091 c 0,-15.795 -11.934,-21.489 -19.448,-21.489 -8.125,0 -14.976,5.837 -14.976,14.17 0,9.139 7.007,22.802 34.424,23.764 l 0,3.51 c -8.476,-0.507 -20.098,-1.014 -30.563,-5.993 -12.493,-5.486 -16.51,-14.118 -16.51,-21.489 0,-13.455 16.003,-17.615 26.468,-17.615 10.959,0 18.629,6.656 21.632,14.469 z" /><path
     inkscape:connector-curvature="0"
     id="path3141"
     style="fill:#000000;fill-opacity:1;fill-rule:nonzero;stroke:none"
     d="m 887.779,732.295 0,0.507 0.208,0.143 0,1.17 0.143,0.364 0,0.455 0.156,0.195 0,0.663 0.208,0.156 0.143,0.351 0,0.312 0.156,0.351 0.156,0.299 0.208,0.208 0,0.312 0.143,0.351 0.312,0.299 0.195,0.364 0.156,0.299 0.156,0.351 0.351,0.312 0.156,0.351 c 6.5,-4.667 13.299,-5.174 16.497,-5.174 l 0,3.861 c -14.521,0 -14.521,16.445 -14.521,20.306 0,4.472 0.208,9.802 2.691,13.962 1.326,1.989 5.135,6.656 11.83,6.656 14.482,0 14.482,-16.653 14.482,-20.462 0,-4.524 -0.208,-9.802 -2.691,-13.962 -1.326,-2.041 -5.135,-6.5 -11.791,-6.5 l 0,-3.861 c 15.444,0 26.767,11.323 26.767,24.167 0,6.149 -2.639,12.285 -6.656,16.094 5.837,5.694 11.83,6.5 14.833,6.5 0.299,0 1.17,0 1.625,-0.143 -1.833,-0.663 -2.639,-2.496 -2.639,-4.524 0,-2.795 2.184,-4.823 4.823,-4.823 1.677,0 4.823,1.17 4.823,5.031 0,2.795 -1.976,8.125 -8.476,8.125 -3.354,0 -10.673,-0.975 -17.472,-7.826 -7.007,5.486 -13.962,5.993 -17.628,5.993 -15.483,0 -26.806,-11.479 -26.806,-24.271 0,-7.319 3.497,-13.507 7.67,-17.16 -2.184,-2.34 -5.031,-7.826 -5.031,-13.611 0,-5.187 2.028,-11.479 7.163,-14.833 -9.802,-2.847 -15.132,-9.997 -15.132,-16.458 0,-11.973 16.302,-21.164 36.608,-21.164 l 0.156,3.848 c -16.809,0 -28.132,8.489 -28.132,17.316 0,7.475 6.188,13.611 13.507,14.118 l 9.802,0 c 14.313,0 32.799,0 32.799,-14.118 0,-8.983 -11.83,-17.316 -27.976,-17.316 l -0.156,-3.848 c 19.448,0 36.764,8.528 36.764,21.32 0,5.837 -2.327,14.326 -10.816,18.941 -8.84,4.68 -18.278,4.68 -28.431,4.68 -4.173,0 -11.323,0 -12.493,0.143 -5.33,0.715 -8.84,5.85 -8.84,11.18 z" /><path
     inkscape:connector-curvature="0"
     id="path3143"
     style="fill:#000000;fill-opacity:1;fill-rule:nonzero;stroke:none"
     d="m 971.512,748.441 0.156,3.497 c 1.014,24.791 14.989,28.951 20.618,28.951 17.16,0 18.642,-22.503 18.642,-28.951 l -39.26,0 -0.156,-3.497 46.267,0 c 3.653,0 4.16,0 4.16,3.497 0,16.458 -8.983,32.604 -29.653,32.604 -19.292,0 -34.424,-17.16 -34.424,-37.934 0,-22.139 17.316,-38.285 36.452,-38.285 20.111,0 27.625,18.486 27.625,21.632 0,1.677 -1.365,1.976 -2.184,1.976 -1.521,0 -1.82,-0.962 -2.184,-2.275 -5.785,-17.173 -20.618,-17.173 -22.282,-17.173 -8.333,0 -14.989,4.979 -18.798,11.18 -4.979,7.969 -4.979,18.941 -4.979,24.778 z" /><path
     inkscape:connector-curvature="0"
     id="path3145"
     style="fill:#000000;fill-opacity:1;fill-rule:nonzero;stroke:none"
     d="m 1103.137,722.948 17.628,17.16 c 25.792,22.802 35.75,31.798 35.75,48.451 0,18.785 -14.937,32.097 -35.087,32.097 -18.798,0 -31.135,-15.288 -31.135,-30.121 0,-9.139 8.333,-9.139 8.84,-9.139 2.847,0 8.632,1.976 8.632,8.632 0,4.316 -3.003,8.632 -8.788,8.632 -1.365,0 -1.677,0 -2.184,-0.156 3.809,10.816 12.805,16.965 22.451,16.965 14.976,0 22.139,-13.455 22.139,-26.91 0,-13.364 -8.333,-26.455 -17.316,-36.816 l -31.941,-35.451 c -1.833,-1.82 -1.833,-2.132 -1.833,-6.136 l 61.594,0 4.628,28.938 -4.108,0 c -0.871,-4.979 -2.041,-12.285 -3.718,-14.781 -1.157,-1.365 -12.129,-1.365 -15.782,-1.365 l -29.77,0 z" /><path
     inkscape:connector-curvature="0"
     id="path3121-1"
     style="fill:none;stroke:#000000;stroke-width:15.60000038;stroke-linecap:butt;stroke-linejoin:miter;stroke-miterlimit:4;stroke-opacity:1;stroke-dasharray:none;marker-end:url(#Arrow2Mend)"
     d="m 264.66313,319.21512 221.104,0" /></g><rect
   style="fill:none;stroke:#ffffff;stroke-width:0.82240570000000002;stroke-linecap:butt;stroke-miterlimit:4;stroke-opacity:1;stroke-dasharray:none;stroke-dashoffset:0"
   id="rect56108-4"
   width="4236.2207"
   height="2303.4712"
   x="-2041.3813"
   y="-1124.7396"
   transform="scale(1,-1)" />
<rect
   transform="scale(1,-1)"
   y="-205.65515"
   x="-1231.7312"
   height="1384.798"
   width="3380.5359"
   id="rect3388"
   style="fill:#ffffff;fill-opacity:1;fill-rule:nonzero;stroke:#007800;stroke-width:15.60000038000000100;stroke-linecap:butt;stroke-miterlimit:4;stroke-opacity:1;stroke-dasharray:none;stroke-dashoffset:0" /><path
   inkscape:connector-curvature="0"
   id="path3013-2-5-1"
   style="fill:none;stroke:#000000;stroke-width:15.6;stroke-linecap:butt;stroke-linejoin:miter;stroke-miterlimit:4;stroke-opacity:1;stroke-dasharray:none"
   d="m -144.93283,-459.12629 -462.75464,0" /><g
   transform="matrix(26,0,0,26,-1926.7515,806.85798)"
   id="g3209"><path
     inkscape:connector-curvature="0"
     id="path2997-4"
     style="fill:none;stroke:#000000;stroke-width:1.20000005;stroke-linecap:round;stroke-linejoin:round;stroke-miterlimit:4;stroke-opacity:1;stroke-dasharray:none"
     d="m 33.809504,-38.021884 4.254,0" /><path
     inkscape:connector-curvature="0"
     id="path2999-0"
     style="fill:none;stroke:#000000;stroke-width:1.20000005;stroke-linecap:round;stroke-linejoin:round;stroke-miterlimit:4;stroke-opacity:1;stroke-dasharray:none"
     d="m 35.934504,-40.150884 0,4.254" /><path
     inkscape:connector-curvature="0"
     id="path3001-9"
     style="fill:none;stroke:#000000;stroke-width:1.20000005;stroke-linecap:round;stroke-linejoin:round;stroke-miterlimit:4;stroke-opacity:1;stroke-dasharray:none"
     d="m 33.809504,-59.283884 4.254,0" /><path
     inkscape:connector-curvature="0"
     id="path3003-4"
     style="fill:none;stroke:#000000;stroke-width:1.20000005;stroke-linecap:butt;stroke-linejoin:round;stroke-miterlimit:4;stroke-opacity:1;stroke-dasharray:none"
     d="m 29.387504,-69.924884 0,42.559 38.347,-21.281 -38.347,-21.278" /><path
     inkscape:connector-curvature="0"
     id="path3009-8"
     style="fill:none;stroke:#000000;stroke-width:1.20000005;stroke-linecap:square;stroke-linejoin:miter;stroke-miterlimit:4;stroke-opacity:1;stroke-dasharray:none"
     d="m 67.824504,-48.654884 10.629,0" /><path
     inkscape:connector-curvature="0"
     id="path3011-8"
     style="fill:none;stroke:#000000;stroke-width:1.20000005;stroke-linecap:butt;stroke-linejoin:round;stroke-miterlimit:4;stroke-opacity:1;stroke-dasharray:none"
     d="m 103.7975,-69.924884 0,42.559 38.348,-21.281 -38.348,-21.278" /><path
     inkscape:connector-curvature="0"
     id="path3013-2"
     style="fill:none;stroke:#000000;stroke-width:1.20000005;stroke-linecap:butt;stroke-linejoin:miter;stroke-miterlimit:4;stroke-opacity:1;stroke-dasharray:none"
     d="m 103.9655,-48.654884 -10.628993,0" /><path
     inkscape:connector-curvature="0"
     id="path3017-4"
     style="fill:none;stroke:#000000;stroke-width:1.20000005;stroke-linecap:round;stroke-linejoin:round;stroke-miterlimit:4;stroke-opacity:1;stroke-dasharray:none"
     d="m 116.7235,-48.654884 4.25,0" /><path
     inkscape:connector-curvature="0"
     id="path3121-5"
     style="fill:none;stroke:#000000;stroke-width:1.20000005;stroke-linecap:butt;stroke-linejoin:miter;stroke-miterlimit:4;stroke-opacity:1;stroke-dasharray:none"
     d="m 78.453504,-48.654884 17.008,0" /><g
     transform="translate(14.030769,-9.5999997)"
     id="g3372"><path
       d="m 32.942504,-18.474884 -1.641,0.398 c -0.781,0.192 -1.277,0.871 -1.277,1.613 0,0.895 0.691,1.676 1.675,1.676 2.137,0 2.418,-2.097 2.496,-2.676 0.012,-0.074 0.012,-0.152 0.153,-0.152 0.152,0 0.152,0.078 0.152,0.32 l 0,2.559 c 0,0.219 0,0.309 -0.141,0.309 -0.074,0 -0.089,-0.016 -0.175,-0.168 l -0.45,-0.731 c -0.382,0.371 -0.91,0.899 -2.046,0.899 -1.411,0 -2.485,-1.129 -2.485,-2.485 0,-1.051 0.68,-1.984 1.676,-2.328 0.129,-0.051 0.781,-0.207 1.676,-0.422 0.347,-0.09 0.73,-0.18 1.09,-0.656 0.269,-0.332 0.394,-0.742 0.394,-1.164 0,-0.906 -0.637,-1.828 -1.715,-1.828 -0.371,0 -1.343,0.062 -2.007,0.691 -0.743,0.692 -0.782,1.508 -0.793,1.957 -0.016,0.129 -0.118,0.129 -0.157,0.129 -0.164,0 -0.164,-0.09 -0.164,-0.309 l 0,-2.558 c 0,-0.219 0,-0.309 0.141,-0.309 0.09,0 0.101,0.028 0.191,0.168 0,0.012 0.039,0.051 0.461,0.727 0.399,-0.434 1.203,-0.895 2.344,-0.895 1.496,0 2.508,1.254 2.508,2.664 0,1.266 -0.832,2.317 -1.906,2.571 z"
       style="fill:#000000;fill-opacity:1;fill-rule:nonzero;stroke:none"
       id="path3123-5"
       inkscape:connector-curvature="0" /><path
       d="m 37.777504,-18.318884 1.832,0 0,0.394 -1.832,0 0,2.344 -0.32,0 c -0.012,-1.051 -0.394,-2.406 -1.637,-2.457 l 0,-0.281 1.075,0 0,-3.52 c 0,-1.578 1.191,-1.73 1.652,-1.73 0.91,0 1.254,0.91 1.254,1.73 l 0,0.727 -0.309,0 0,-0.703 c 0,-0.945 -0.383,-1.434 -0.855,-1.434 -0.86,0 -0.86,1.164 -0.86,1.383 l 0,3.547 z"
       style="fill:#000000;fill-opacity:1;fill-rule:nonzero;stroke:none"
       id="path3125-1"
       inkscape:connector-curvature="0" /><path
       d="m 44.781504,-22.455884 0.012,-0.051 0,-0.039 0.012,-0.05 0.015,-0.051 0.012,-0.051 0.012,-0.039 0.012,-0.051 0.015,-0.051 0.024,-0.039 0.027,-0.05 0.012,-0.04 0.027,-0.039 0.023,-0.05 0.028,-0.039 0.039,-0.036 0.023,-0.039 0.039,-0.039 0.024,-0.027 0.039,-0.035 0.039,-0.028 0.039,-0.039 0.039,-0.023 0.039,-0.027 0.051,-0.028 0.039,-0.011 0.051,-0.024 0.035,-0.016 0.055,-0.011 0.05,-0.012 0.051,0 0.063,-0.012 0.05,0 c 0.27,0 1.051,0.176 1.051,1.215 l 0,0.715 -0.32,0 0,-0.715 c 0,-0.742 -0.32,-0.82 -0.461,-0.82 -0.422,0 -0.473,0.578 -0.473,0.64 l 0,2.547 c 0,0.539 0,1.036 -0.461,1.512 -0.5,0.496 -1.125,0.703 -1.742,0.703 -1.047,0 -1.933,-0.601 -1.933,-1.445 0,-0.387 0.257,-0.602 0.589,-0.602 0.36,0 0.59,0.254 0.59,0.586 0,0.157 -0.062,0.578 -0.652,0.59 0.344,0.449 0.973,0.59 1.383,0.59 0.613,0 1.344,-0.5 1.344,-1.641 l 0,-2.007 c 0,-1.215 -0.911,-1.653 -1.485,-1.653 -0.629,0 -1.152,0.449 -1.152,1.09 0,0.703 0.535,1.754 2.637,1.828 l 0,0.27 c -0.641,-0.039 -1.536,-0.078 -2.344,-0.461 -0.961,-0.422 -1.281,-1.086 -1.281,-1.653 0,-1.035 1.242,-1.355 2.05,-1.355 0.832,0 1.418,0.512 1.664,1.113 z"
       style="fill:#000000;fill-opacity:1;fill-rule:nonzero;stroke:none"
       id="path3127-7"
       inkscape:connector-curvature="0" /><path
       d="m 48.262504,-21.724884 0,0.09 0.012,0.011 0,0.067 0.015,0.011 0,0.039 0.012,0.024 0,0.027 0.012,0.012 0,0.027 0.011,0.024 0.016,0.027 0,0.023 0.012,0.016 0.011,0.024 0.012,0.027 0.016,0.023 0.011,0.028 0.028,0.023 0.012,0.027 0.011,0.024 0.028,0.027 c 0.5,-0.359 1.023,-0.398 1.265,-0.398 l 0,0.297 c -1.113,0 -1.113,1.265 -1.113,1.562 0,0.344 0.012,0.754 0.203,1.074 0.106,0.153 0.398,0.512 0.91,0.512 1.102,0 1.102,-1.281 1.102,-1.574 0,-0.348 -0.012,-0.754 -0.207,-1.074 -0.102,-0.157 -0.395,-0.5 -0.895,-0.5 l 0,-0.297 c 1.18,0 2.063,0.871 2.063,1.859 0,0.473 -0.207,0.945 -0.528,1.238 0.461,0.438 0.922,0.5 1.153,0.5 0.027,0 0.09,0 0.129,-0.011 -0.141,-0.051 -0.204,-0.192 -0.204,-0.348 0,-0.215 0.165,-0.371 0.372,-0.371 0.125,0 0.371,0.09 0.371,0.387 0,0.215 -0.157,0.625 -0.653,0.625 -0.257,0 -0.82,-0.075 -1.359,-0.602 -0.535,0.422 -1.063,0.461 -1.344,0.461 -1.191,0 -2.074,-0.883 -2.074,-1.867 0,-0.563 0.281,-1.039 0.602,-1.32 -0.165,-0.18 -0.395,-0.602 -0.395,-1.047 0,-0.399 0.164,-0.883 0.563,-1.141 -0.77,-0.219 -1.18,-0.769 -1.18,-1.266 0,-0.921 1.269,-1.628 2.832,-1.628 l 0.012,0.296 c -1.293,0 -2.176,0.653 -2.176,1.332 0,0.575 0.484,1.047 1.051,1.086 l 0.753,0 c 1.086,0 2.52,0 2.52,-1.086 0,-0.691 -0.906,-1.332 -2.148,-1.332 l -0.012,-0.296 c 1.496,0 2.828,0.656 2.828,1.64 0,0.449 -0.18,1.102 -0.832,1.457 -0.68,0.36 -1.422,0.36 -2.191,0.36 -0.317,0 -0.868,0 -0.957,0.011 -0.411,0.055 -0.68,0.45 -0.68,0.86 z"
       style="fill:#000000;fill-opacity:1;fill-rule:nonzero;stroke:none"
       id="path3129-1"
       inkscape:connector-curvature="0" /><path
       d="m 54.699504,-20.482884 0.016,0.269 c 0.074,1.907 1.148,2.227 1.586,2.227 1.305,0 1.433,-1.731 1.433,-2.227 l -3.019,0 -0.016,-0.269 3.559,0 c 0.281,0 0.32,0 0.32,0.269 0,1.266 -0.691,2.508 -2.277,2.508 -1.484,0 -2.664,-1.32 -2.664,-2.918 0,-1.703 1.344,-2.945 2.816,-2.945 1.551,0 2.125,1.422 2.125,1.664 0,0.129 -0.101,0.152 -0.164,0.152 -0.117,0 -0.144,-0.074 -0.168,-0.175 -0.449,-1.321 -1.601,-1.321 -1.715,-1.321 -0.64,0 -1.152,0.383 -1.445,0.86 -0.387,0.613 -0.387,1.457 -0.387,1.906 z"
       style="fill:#000000;fill-opacity:1;fill-rule:nonzero;stroke:none"
       id="path3131-1"
       inkscape:connector-curvature="0" /><path
       d="m 66.949504,-15.259884 0,0.191 -0.011,0.012 0,0.05 -0.012,0 0,0.016 -0.016,0.012 -0.011,0.011 -0.012,0 0,0.012 -0.028,0 0,0.016 -0.062,0 -0.012,0.012 -0.129,0 c -0.793,-0.821 -1.906,-0.821 -2.316,-0.821 l 0,-0.394 c 0.254,0 1.012,0 1.664,0.332 l 0,-6.606 c 0,-0.461 -0.039,-0.613 -1.18,-0.613 l -0.41,0 0,-0.398 c 0.449,0.039 1.551,0.039 2.063,0.039 0.511,0 1.625,0 2.074,-0.039 l 0,0.398 -0.41,0 c -1.153,0 -1.192,0.141 -1.192,0.613 l 0,7.157 z"
       style="fill:#000000;fill-opacity:1;fill-rule:nonzero;stroke:none"
       id="path3133-5"
       inkscape:connector-curvature="0" /></g><g
     transform="translate(13.337542,-10.336339)"
     id="g3380"><path
       d="m 106.6415,-18.474884 -1.625,0.398 c -0.793,0.192 -1.293,0.871 -1.293,1.613 0,0.895 0.691,1.676 1.687,1.676 2.125,0 2.41,-2.097 2.485,-2.676 0.011,-0.074 0.011,-0.152 0.156,-0.152 0.164,0 0.164,0.078 0.164,0.32 l 0,2.559 c 0,0.219 0,0.309 -0.141,0.309 -0.09,0 -0.101,-0.016 -0.191,-0.168 l -0.449,-0.731 c -0.383,0.371 -0.907,0.899 -2.035,0.899 -1.422,0 -2.497,-1.129 -2.497,-2.485 0,-1.051 0.68,-1.984 1.68,-2.328 0.141,-0.051 0.793,-0.207 1.676,-0.422 0.344,-0.09 0.73,-0.18 1.086,-0.656 0.269,-0.332 0.398,-0.742 0.398,-1.164 0,-0.906 -0.64,-1.828 -1.715,-1.828 -0.359,0 -1.332,0.062 -2.011,0.691 -0.742,0.692 -0.782,1.508 -0.793,1.957 -0.012,0.129 -0.114,0.129 -0.153,0.129 -0.168,0 -0.168,-0.09 -0.168,-0.309 l 0,-2.558 c 0,-0.219 0,-0.309 0.141,-0.309 0.09,0 0.106,0.028 0.191,0.168 0,0.012 0.04,0.051 0.461,0.727 0.399,-0.434 1.219,-0.895 2.344,-0.895 1.496,0 2.524,1.254 2.524,2.664 0,1.266 -0.848,2.317 -1.922,2.571 z"
       style="fill:#000000;fill-opacity:1;fill-rule:nonzero;stroke:none"
       id="path3135-2"
       inkscape:connector-curvature="0" /><path
       d="m 111.4815,-18.318884 1.828,0 0,0.394 -1.828,0 0,2.344 -0.321,0 c -0.011,-1.051 -0.386,-2.406 -1.64,-2.457 l 0,-0.281 1.089,0 0,-3.52 c 0,-1.578 1.176,-1.73 1.637,-1.73 0.91,0 1.27,0.91 1.27,1.73 l 0,0.727 -0.321,0 0,-0.703 c 0,-0.945 -0.386,-1.434 -0.859,-1.434 -0.855,0 -0.855,1.164 -0.855,1.383 l 0,3.547 z"
       style="fill:#000000;fill-opacity:1;fill-rule:nonzero;stroke:none"
       id="path3137-7"
       inkscape:connector-curvature="0" /><path
       d="m 118.4815,-22.455884 0.011,-0.051 0.016,-0.039 0,-0.05 0.023,-0.102 0.012,-0.039 0.016,-0.051 0.023,-0.051 0.016,-0.039 0.023,-0.05 0.028,-0.04 0.023,-0.039 0.027,-0.05 0.024,-0.039 0.027,-0.036 0.024,-0.039 0.066,-0.066 0.039,-0.035 0.039,-0.028 0.035,-0.039 0.039,-0.023 0.051,-0.027 0.039,-0.028 0.039,-0.011 0.051,-0.024 0.051,-0.016 0.101,-0.023 0.051,0 0.055,-0.012 0.051,0 c 0.26901,0 1.046,0.176 1.046,1.215 l 0,0.715 -0.32,0 0,-0.715 c 0,-0.742 -0.316,-0.82 -0.45699,-0.82 -0.426,0 -0.476,0.578 -0.476,0.64 l 0,2.547 c 0,0.539 0,1.036 -0.46101,1.512 -0.48499,0.496 -1.12499,0.703 -1.73899,0.703 -1.05,0 -1.922,-0.601 -1.922,-1.445 0,-0.387 0.24299,-0.602 0.57899,-0.602 0.35501,0 0.586,0.254 0.586,0.586 0,0.157 -0.063,0.578 -0.65299,0.59 0.348,0.449 0.97299,0.59 1.38299,0.59 0.62901,0 1.35501,-0.5 1.35501,-1.641 l 0,-2.007 c 0,-1.215 -0.918,-1.653 -1.496,-1.653 -0.62501,0 -1.152,0.449 -1.152,1.09 0,0.703 0.53899,1.754 2.648,1.828 l 0,0.27 c -0.652,-0.039 -1.546,-0.078 -2.35101,-0.461 -0.96099,-0.422 -1.27,-1.086 -1.27,-1.653 0,-1.035 1.23101,-1.355 2.036,-1.355 0.84301,0 1.43301,0.512 1.664,1.113 z"
       style="fill:#000000;fill-opacity:1;fill-rule:nonzero;stroke:none"
       id="path3139-6"
       inkscape:connector-curvature="0" /><path
       d="m 121.9615,-21.724884 0,0.039 0.016,0.011 0,0.09 0.011,0.028 0,0.035 0.012,0.015 0,0.051 0.016,0.012 0.011,0.027 0,0.024 0.012,0.027 0.012,0.023 0.016,0.016 0,0.024 0.011,0.027 0.024,0.023 0.015,0.028 0.012,0.023 0.012,0.027 0.027,0.024 0.012,0.027 c 0.5,-0.359 1.023,-0.398 1.269,-0.398 l 0,0.297 c -1.117,0 -1.117,1.265 -1.117,1.562 0,0.344 0.016,0.754 0.207,1.074 0.102,0.153 0.395,0.512 0.91,0.512 1.114,0 1.114,-1.281 1.114,-1.574 0,-0.348 -0.016,-0.754 -0.207,-1.074 -0.102,-0.157 -0.395,-0.5 -0.907,-0.5 l 0,-0.297 c 1.188,0 2.059,0.871 2.059,1.859 0,0.473 -0.203,0.945 -0.512,1.238 0.449,0.438 0.91,0.5 1.141,0.5 0.023,0 0.09,0 0.125,-0.011 -0.141,-0.051 -0.203,-0.192 -0.203,-0.348 0,-0.215 0.168,-0.371 0.371,-0.371 0.129,0 0.371,0.09 0.371,0.387 0,0.215 -0.152,0.625 -0.652,0.625 -0.258,0 -0.821,-0.075 -1.344,-0.602 -0.539,0.422 -1.074,0.461 -1.356,0.461 -1.191,0 -2.062,-0.883 -2.062,-1.867 0,-0.563 0.269,-1.039 0.59,-1.32 -0.168,-0.18 -0.387,-0.602 -0.387,-1.047 0,-0.399 0.156,-0.883 0.551,-1.141 -0.754,-0.219 -1.164,-0.769 -1.164,-1.266 0,-0.921 1.254,-1.628 2.816,-1.628 l 0.012,0.296 c -1.293,0 -2.164,0.653 -2.164,1.332 0,0.575 0.476,1.047 1.039,1.086 l 0.754,0 c 1.101,0 2.523,0 2.523,-1.086 0,-0.691 -0.91,-1.332 -2.152,-1.332 l -0.012,-0.296 c 1.496,0 2.828,0.656 2.828,1.64 0,0.449 -0.179,1.102 -0.832,1.457 -0.68,0.36 -1.406,0.36 -2.187,0.36 -0.321,0 -0.871,0 -0.961,0.011 -0.41,0.055 -0.68,0.45 -0.68,0.86 z"
       style="fill:#000000;fill-opacity:1;fill-rule:nonzero;stroke:none"
       id="path3141-1"
       inkscape:connector-curvature="0" /><path
       d="m 128.40251,-20.482884 0.012,0.269 c 0.078,1.907 1.15299,2.227 1.586,2.227 1.32,0 1.434,-1.731 1.434,-2.227 l -3.02,0 -0.012,-0.269 3.55899,0 c 0.28101,0 0.32,0 0.32,0.269 0,1.266 -0.69099,2.508 -2.28099,2.508 -1.484,0 -2.648,-1.32 -2.648,-2.918 0,-1.703 1.332,-2.945 2.804,-2.945 1.54699,0 2.12499,1.422 2.12499,1.664 0,0.129 -0.10499,0.152 -0.168,0.152 -0.11699,0 -0.14,-0.074 -0.168,-0.175 -0.44499,-1.321 -1.586,-1.321 -1.714,-1.321 -0.64099,0 -1.15299,0.383 -1.446,0.86 -0.38299,0.613 -0.38299,1.457 -0.38299,1.906 z"
       style="fill:#000000;fill-opacity:1;fill-rule:nonzero;stroke:none"
       id="path3143-4"
       inkscape:connector-curvature="0" /><path
       d="m 138.5275,-22.443884 1.356,1.32 c 1.984,1.754 2.75,2.446 2.75,3.727 0,1.445 -1.14899,2.469 -2.69899,2.469 -1.446,0 -2.39501,-1.176 -2.39501,-2.317 0,-0.703 0.64101,-0.703 0.68,-0.703 0.21901,0 0.664,0.152 0.664,0.664 0,0.332 -0.23099,0.664 -0.676,0.664 -0.10499,0 -0.12899,0 -0.168,-0.012 0.29301,0.832 0.98501,1.305 1.72701,1.305 1.152,0 1.70299,-1.035 1.70299,-2.07 0,-1.028 -0.64099,-2.035 -1.332,-2.832 l -2.45699,-2.727 c -0.14101,-0.14 -0.14101,-0.164 -0.14101,-0.472 l 4.738,0 0.356,2.226 -0.316,0 c -0.067,-0.383 -0.15699,-0.945 -0.286,-1.137 -0.089,-0.105 -0.93299,-0.105 -1.214,-0.105 l -2.29,0 z"
       style="fill:#000000;fill-opacity:1;fill-rule:nonzero;stroke:none"
       id="path3145-2"
       inkscape:connector-curvature="0" /></g><path
     inkscape:connector-curvature="0"
     id="path3121-1-3"
     style="fill:none;stroke:#000000;stroke-width:1.20000005;stroke-linecap:butt;stroke-linejoin:miter;stroke-miterlimit:4;stroke-opacity:1;stroke-dasharray:none;marker-end:url(#Arrow2Mend)"
     d="m 83.875668,-44.884875 17.008002,0" /><g
     style="stroke:#ff0000;stroke-opacity:1"
     id="g4089-9"
     transform="matrix(0.03846154,0,0,0.03846154,71.844649,-66.003825)"><g
       style="stroke:#ff0000;stroke-opacity:1"
       transform="matrix(13,0,0,13,-2242.7155,-1307.9248)"
       id="g3926-8-3"><path
         inkscape:connector-curvature="0"
         id="path3023-1-8-1"
         style="fill:#ffffff;fill-opacity:1;stroke:#ff0000;stroke-width:1.20000005000000010;stroke-linecap:round;stroke-linejoin:round;stroke-miterlimit:4;stroke-opacity:1;stroke-dasharray:none"
         d="m 192.05645,117.08336 c 0,-4.24077 -3.20307,-7.67759 -7.15541,-7.67759 -3.95234,0 -7.15541,3.43682 -7.15541,7.67759 0,4.24076 3.20307,7.67758 7.15541,7.67758 3.95234,0 7.15541,-3.43682 7.15541,-7.67758 z" /></g><g
       style="stroke:#ff0000;stroke-opacity:1"
       transform="matrix(13,0,0,13,-2242.7155,-1412.405)"
       id="g3926-8-1-9"><path
         inkscape:connector-curvature="0"
         id="path3023-1-8-7-8"
         style="fill:none;stroke:#ff0000;stroke-width:1.20000005000000010;stroke-linecap:round;stroke-linejoin:round;stroke-miterlimit:4;stroke-opacity:1;stroke-dasharray:none"
         d="m 192.05645,117.08336 c 0,-4.24077 -3.20307,-7.67759 -7.15541,-7.67759 -3.95234,0 -7.15541,3.43682 -7.15541,7.67759 0,4.24076 3.20307,7.67758 7.15541,7.67758 3.95234,0 7.15541,-3.43682 7.15541,-7.67758 z" /></g><g
       style="stroke:#ff0000;stroke-opacity:1"
       transform="translate(1497.077,-214.28565)"
       id="g3157-4-6"><path
         inkscape:connector-curvature="0"
         id="path3039-0-5"
         style="fill:none;stroke:#ff0000;stroke-width:15.60000038000000100;stroke-linecap:round;stroke-linejoin:miter;stroke-miterlimit:4;stroke-opacity:1;stroke-dasharray:none"
         d="m -1419.006,100.014 165.854,0" /><path
         inkscape:connector-curvature="0"
         id="path3041-9-1-0"
         style="fill:none;stroke:#ff0000;stroke-width:15.60000038000000100;stroke-linecap:round;stroke-linejoin:miter;stroke-miterlimit:4;stroke-opacity:1;stroke-dasharray:none"
         d="m -1391.329,72.337 110.552,0" /><path
         inkscape:connector-curvature="0"
         id="path3043-4-2"
         style="fill:none;stroke:#ff0000;stroke-width:15.60000038000000100;stroke-linecap:round;stroke-linejoin:miter;stroke-miterlimit:4;stroke-opacity:1;stroke-dasharray:none"
         d="m -1363.704,44.712 55.25,0" /><path
         inkscape:connector-curvature="0"
         id="path3045-8-8"
         style="fill:none;stroke:#ff0000;stroke-width:15.60000038000000100;stroke-linecap:butt;stroke-linejoin:miter;stroke-miterlimit:4;stroke-opacity:1;stroke-dasharray:none"
         d="m -1336.079,105.851 0,114.18114" /></g><path
       d="m 160.99802,312.749 0,137.56128"
       style="fill:none;stroke:#ff0000;stroke-width:14.07502460000000100;stroke-linecap:butt;stroke-linejoin:miter;stroke-miterlimit:4;stroke-opacity:1;stroke-dasharray:none"
       id="path3035-2-5-4"
       inkscape:connector-curvature="0" /><g
       style="stroke:#ff0000;stroke-opacity:1"
       id="g4085-6"
       transform="translate(-3e-5,32.809754)"><path
         inkscape:connector-curvature="0"
         id="path3035-2-0"
         style="stroke-linejoin:miter;marker-end:url(#Arrow2SendV);stroke-opacity:1;stroke:#ff0000;stroke-linecap:butt;stroke-miterlimit:4;stroke-dasharray:none;stroke-width:15.60000038000000100;fill:none"
         d="m 160.998,9.10476 0,216.37755" /><path
         style="stroke-linejoin:miter;marker-end:url(#Arrow2Mend-1J);stroke-opacity:1;stroke:#0000ff;stroke-linecap:butt;stroke-miterlimit:4;stroke-dasharray:none;stroke-width:19.50000000000000000;fill:none"
         d="m 2823.9999,2536.367 c -1.3391,-338.1214 14.993,-391.2483 80,-444 105.0185,-85.2201 456,-58 456,-58"
         id="path6692"
         inkscape:connector-curvature="0"
         transform="matrix(0.79999997,0,0,-0.79999997,-1983.0018,2001.5824)"
         sodipodi:nodetypes="csc" /><path
         style="fill:none;stroke:#0000ff;stroke-width:15.59999943;stroke-linecap:butt;stroke-linejoin:miter;stroke-miterlimit:4;stroke-opacity:1;stroke-dasharray:none;marker-end:url(#Arrow2Mend-1y)"
         d="m 40.96826,-29.96547 c 1.0713,270.4971 16.805553,336.99864 -35.2000021,379.2 -84.0147369,68.1761 -60.6690199,32.22389 -188.8000079,36.8"
         id="path6692-8"
         inkscape:connector-curvature="0"
         sodipodi:nodetypes="csc" /></g></g></g><path
   sodipodi:nodetypes="cc"
   transform="matrix(0.8,0,0,-0.8,-2041.7926,1125.1508)"
   inkscape:connector-curvature="0"
   id="path4224"
   d="m 1014,1150.367 c 502,-52 1079.1715,-593.59798 1079.1715,-593.59798"
   style="fill:none;stroke:#007800;stroke-width:19.5;stroke-linecap:butt;stroke-linejoin:miter;stroke-miterlimit:4;stroke-opacity:1;stroke-dasharray:none" /><path
   sodipodi:nodetypes="cc"
   transform="matrix(0.8,0,0,-0.8,-2041.7926,1125.1508)"
   inkscape:connector-curvature="0"
   id="path4226"
   d="M 4004.7197,554.51261 C 4349.7878,820.38475 5235.4185,1152.198 5235.4185,1152.198"
   style="fill:none;stroke:#007800;stroke-width:19.5;stroke-linecap:butt;stroke-linejoin:miter;stroke-miterlimit:4;stroke-opacity:1;stroke-dasharray:none" /><path
   inkscape:connector-curvature="0"
   id="path3121-5-2"
   style="fill:none;stroke:#000000;stroke-width:31.2;stroke-linecap:butt;stroke-linejoin:miter;stroke-miterlimit:4;stroke-opacity:1;stroke-dasharray:none"
   d="m 1749.9033,-459.14278 391.1479,0" /><path
   inkscape:connector-curvature="0"
   id="path3121-5-2-2"
   style="fill:none;stroke:#000000;stroke-width:31.2;stroke-linecap:butt;stroke-linejoin:miter;stroke-miterlimit:4;stroke-opacity:1;stroke-dasharray:none"
   d="m -1223.0163,-136.01886 73.7221,0" /><path
   inkscape:connector-curvature="0"
   id="path3121-5-2-1"
   style="fill:none;stroke:#000000;stroke-width:31.2;stroke-linecap:butt;stroke-linejoin:miter;stroke-miterlimit:4;stroke-opacity:1;stroke-dasharray:none"
   d="m -1223.2863,-729.54277 49.0677,0" /><path
   inkscape:connector-curvature="0"
   id="path3013-2-5"
   style="fill:none;stroke:#000000;stroke-width:15.6;stroke-linecap:butt;stroke-linejoin:miter;stroke-miterlimit:4;stroke-opacity:1;stroke-dasharray:none"
   d="m 911.04217,-459.14282 -135.81176,0" /><rect
   transform="scale(1,-1)"
   y="576.20367"
   x="-328.61716"
   height="342.60916"
   width="108.41542"
   id="rect4273-4"
   style="fill:#ffffff;fill-opacity:1;fill-rule:nonzero;stroke:#000000;stroke-width:15.60000038;stroke-linecap:butt;stroke-miterlimit:4;stroke-opacity:1;stroke-dasharray:none;stroke-dashoffset:0" /><g
   id="g4275-1-3"
   transform="translate(1059.7173,-1125.1203)"><path
     d="m -1419.006,100.014 165.854,0"
     style="fill:none;stroke:#000000;stroke-width:15.60000038;stroke-linecap:round;stroke-linejoin:miter;stroke-miterlimit:4;stroke-opacity:1;stroke-dasharray:none"
     id="path3039-8-1"
     inkscape:connector-curvature="0" /><path
     d="m -1391.329,72.337 110.552,0"
     style="fill:none;stroke:#000000;stroke-width:15.60000038;stroke-linecap:round;stroke-linejoin:miter;stroke-miterlimit:4;stroke-opacity:1;stroke-dasharray:none"
     id="path3041-9-2"
     inkscape:connector-curvature="0" /><path
     d="m -1363.704,44.712 55.25,0"
     style="fill:none;stroke:#000000;stroke-width:15.60000038;stroke-linecap:round;stroke-linejoin:miter;stroke-miterlimit:4;stroke-opacity:1;stroke-dasharray:none"
     id="path3043-2-3"
     inkscape:connector-curvature="0" /><path
     d="m -1336.079,105.851 0,98.55407"
     style="fill:none;stroke:#000000;stroke-width:15.6;stroke-linecap:butt;stroke-linejoin:miter;stroke-miterlimit:4;stroke-opacity:1;stroke-dasharray:none"
     id="path3045-7-3"
     inkscape:connector-curvature="0" /></g><path
   d="m -273.76763,-575.70645 0,116.44366"
   style="fill:none;stroke:#000000;stroke-width:15.6;stroke-linecap:butt;stroke-linejoin:miter;stroke-miterlimit:4;stroke-opacity:1;stroke-dasharray:none"
   id="path3045-7-9-4"
   inkscape:connector-curvature="0" /><g
   id="g4089"
   transform="translate(-761.32433,-909.24144)"><g
     transform="matrix(13,0,0,13,-2242.7155,-1307.9248)"
     id="g3926-8"><path
       inkscape:connector-curvature="0"
       id="path3023-1-8"
       style="fill:#ffffff;fill-opacity:1;stroke:#000000;stroke-width:1.20000005;stroke-linecap:round;stroke-linejoin:round;stroke-miterlimit:4;stroke-opacity:1;stroke-dasharray:none"
       d="m 192.05645,117.08336 c 0,-4.24077 -3.20307,-7.67759 -7.15541,-7.67759 -3.95234,0 -7.15541,3.43682 -7.15541,7.67759 0,4.24076 3.20307,7.67758 7.15541,7.67758 3.95234,0 7.15541,-3.43682 7.15541,-7.67758 z" /></g><g
     transform="matrix(13,0,0,13,-2242.7155,-1412.405)"
     id="g3926-8-1"><path
       inkscape:connector-curvature="0"
       id="path3023-1-8-7"
       style="fill:none;stroke:#000000;stroke-width:1.20000005;stroke-linecap:round;stroke-linejoin:round;stroke-miterlimit:4;stroke-opacity:1;stroke-dasharray:none"
       d="m 192.05645,117.08336 c 0,-4.24077 -3.20307,-7.67759 -7.15541,-7.67759 -3.95234,0 -7.15541,3.43682 -7.15541,7.67759 0,4.24076 3.20307,7.67758 7.15541,7.67758 3.95234,0 7.15541,-3.43682 7.15541,-7.67758 z" /></g><g
     transform="translate(1497.077,-214.28565)"
     id="g3157-4"><path
       inkscape:connector-curvature="0"
       id="path3039-0"
       style="fill:none;stroke:#000000;stroke-width:15.60000038;stroke-linecap:round;stroke-linejoin:miter;stroke-miterlimit:4;stroke-opacity:1;stroke-dasharray:none"
       d="m -1419.006,100.014 165.854,0" /><path
       inkscape:connector-curvature="0"
       id="path3041-9-1"
       style="fill:none;stroke:#000000;stroke-width:15.60000038;stroke-linecap:round;stroke-linejoin:miter;stroke-miterlimit:4;stroke-opacity:1;stroke-dasharray:none"
       d="m -1391.329,72.337 110.552,0" /><path
       inkscape:connector-curvature="0"
       id="path3043-4"
       style="fill:none;stroke:#000000;stroke-width:15.60000038;stroke-linecap:round;stroke-linejoin:miter;stroke-miterlimit:4;stroke-opacity:1;stroke-dasharray:none"
       d="m -1363.704,44.712 55.25,0" /><path
       inkscape:connector-curvature="0"
       id="path3045-8"
       style="fill:none;stroke:#000000;stroke-width:15.6;stroke-linecap:butt;stroke-linejoin:miter;stroke-miterlimit:4;stroke-opacity:1;stroke-dasharray:none"
       d="m -1336.079,105.851 0,114.18114" /></g><g
     id="g4085"
     transform="translate(-3e-5,32.809754)"><path
       inkscape:connector-curvature="0"
       id="path3035-2"
       style="fill:none;stroke:#000000;stroke-width:15.60000038;stroke-linecap:butt;stroke-linejoin:miter;stroke-miterlimit:4;stroke-opacity:1;stroke-dasharray:none"
       d="m 160.998,9.10476 0,216.37755" /><path
       inkscape:connector-curvature="0"
       id="path3037-4"
       style="fill:#000000;fill-opacity:1;fill-rule:evenodd;stroke:none"
       d="m 136.5237,195.46531 24.449,61.32433 24.4997,-61.32433 c -14.4733,9.80504 -34.2049,9.74269 -48.9487,0 z" /></g><path
     d="m 160.99802,312.749 0,137.56128"
     style="fill:none;stroke:#000000;stroke-width:14.0750246;stroke-linecap:butt;stroke-linejoin:miter;stroke-miterlimit:4;stroke-opacity:1;stroke-dasharray:none"
     id="path3035-2-5"
     inkscape:connector-curvature="0" /></g><rect
   transform="scale(1,-1)"
   y="572.71088"
   x="849.95184"
   height="342.60916"
   width="108.41542"
   id="rect4273-4-3"
   style="fill:#ffffff;fill-opacity:1;fill-rule:nonzero;stroke:#000000;stroke-width:15.60000038;stroke-linecap:butt;stroke-miterlimit:4;stroke-opacity:1;stroke-dasharray:none;stroke-dashoffset:0" /><g
   id="g4275-1-3-8"
   transform="translate(2238.2864,-1121.6275)"><path
     d="m -1419.006,100.014 165.854,0"
     style="fill:none;stroke:#000000;stroke-width:15.60000038;stroke-linecap:round;stroke-linejoin:miter;stroke-miterlimit:4;stroke-opacity:1;stroke-dasharray:none"
     id="path3039-8-1-7"
     inkscape:connector-curvature="0" /><path
     d="m -1391.329,72.337 110.552,0"
     style="fill:none;stroke:#000000;stroke-width:15.60000038;stroke-linecap:round;stroke-linejoin:miter;stroke-miterlimit:4;stroke-opacity:1;stroke-dasharray:none"
     id="path3041-9-2-4"
     inkscape:connector-curvature="0" /><path
     d="m -1363.704,44.712 55.25,0"
     style="fill:none;stroke:#000000;stroke-width:15.60000038;stroke-linecap:round;stroke-linejoin:miter;stroke-miterlimit:4;stroke-opacity:1;stroke-dasharray:none"
     id="path3043-2-3-2"
     inkscape:connector-curvature="0" /><path
     d="m -1336.079,105.851 0,98.55407"
     style="fill:none;stroke:#000000;stroke-width:15.60000038;stroke-linecap:butt;stroke-linejoin:miter;stroke-miterlimit:4;stroke-opacity:1;stroke-dasharray:none"
     id="path3045-7-3-7"
     inkscape:connector-curvature="0" /></g><path
   d="m 904.8014,-572.2137 0,116.4437"
   style="fill:none;stroke:#000000;stroke-width:15.60000038;stroke-linecap:butt;stroke-linejoin:miter;stroke-miterlimit:4;stroke-opacity:1;stroke-dasharray:none"
   id="path3045-7-9-4-7"
   inkscape:connector-curvature="0" /></g></svg>